#FIG 3.1
Portrait
Center
Inches
1200 2
5 1 0 1 -1 7 0 0 -1 0.000 0 1 1 0 5288.924 348.418 1875 4950 3450 5775 5100 6075
	1 1 1.00 60.00 120.00
5 1 0 1 -1 7 0 0 -1 0.000 0 1 1 0 3709.129 6763.062 5100 2850 2850 2700 1800 3075
	1 1 1.00 60.00 120.00
2 1 0 1 -1 7 0 0 -1 0.000 0 0 -1 0 0 2
	 901 901 901 12001
2 1 0 1 -1 7 0 0 -1 0.000 0 0 -1 1 0 2
	1 1 1.00 60.00 120.00
	 5700 825 5700 1500
2 1 0 1 -1 7 0 0 -1 0.000 0 0 -1 0 0 2
	 5700 1800 5700 1950
2 1 0 1 -1 7 0 0 -1 0.000 0 0 -1 0 0 2
	 5700 2175 5700 2400
2 1 0 1 -1 7 0 0 -1 0.000 0 0 -1 0 0 2
	 5700 2700 5700 2775
2 1 0 1 -1 7 0 0 -1 0.000 0 0 -1 0 0 2
	 5700 3000 5700 3150
2 1 0 1 -1 7 0 0 -1 0.000 0 0 -1 1 0 2
	1 1 1.00 60.00 120.00
	 5700 3450 5700 3750
2 1 0 1 -1 7 0 0 -1 0.000 0 0 -1 1 0 2
	1 1 1.00 60.00 120.00
	 5700 3975 5700 5925
2 1 0 1 -1 7 0 0 -1 0.000 0 0 -1 1 0 2
	1 1 1.00 60.00 120.00
	 5700 6150 5700 9525
2 1 0 1 -1 7 0 0 -1 0.000 0 0 -1 1 0 2
	1 1 1.00 60.00 120.00
	 5700 9825 5700 10500
2 1 0 1 -1 7 0 0 -1 0.000 0 0 -1 1 0 2
	1 1 1.00 60.00 120.00
	 5700 10800 5700 12300
2 1 0 1 -1 7 0 0 -1 0.000 0 0 -1 1 0 2
	1 1 1.00 60.00 120.00
	 5085 2935 3360 2995
2 1 0 1 -1 7 0 0 -1 0.000 0 0 -1 1 0 2
	1 1 1.00 60.00 120.00
	 1800 3375 1800 4650
2 1 0 1 -1 7 0 0 -1 0.000 0 0 -1 1 0 2
	1 1 1.00 60.00 120.00
	 1800 4950 1800 5325
2 1 0 1 -1 7 0 0 -1 0.000 0 0 -1 1 0 2
	1 1 1.00 60.00 120.00
	 3000 3150 3000 4650
2 1 0 1 -1 7 0 0 -1 0.000 0 0 -1 1 0 2
	1 1 1.00 60.00 120.00
	 5100 3900 3075 4650
2 1 0 1 -1 7 0 0 -1 0.000 0 0 -1 1 0 2
	1 1 1.00 60.00 120.00
	 5100 3975 3900 4650
2 1 0 1 -1 7 0 0 -1 0.000 0 0 -1 1 0 2
	1 1 1.00 60.00 120.00
	 5400 3975 4950 4650
2 1 0 1 -1 7 0 0 -1 0.000 0 0 -1 1 0 2
	1 1 1.00 60.00 120.00
	 5100 3825 1950 4650
2 1 0 1 -1 7 0 0 -1 0.000 0 0 -1 0 0 2
	 5100 3375 3000 4050
2 1 0 1 -1 7 0 0 -1 0.000 0 0 -1 0 0 2
	 5175 3300 1800 4050
2 1 0 1 -1 7 0 0 -1 0.000 0 0 -1 1 0 2
	1 1 1.00 60.00 120.00
	 3900 4950 3900 5250
2 1 0 1 -1 7 0 0 -1 0.000 0 0 -1 1 0 2
	1 1 1.00 60.00 120.00
	 3900 5550 3900 7050
2 1 0 1 -1 7 0 0 -1 0.000 0 0 -1 1 0 2
	1 1 1.00 60.00 120.00
	 1800 5550 3825 7050
2 1 0 1 -1 7 0 0 -1 0.000 0 0 -1 1 0 2
	1 1 1.00 60.00 120.00
	 6300 6150 6675 6300
2 1 0 1 -1 7 0 0 -1 0.000 0 0 -1 1 0 2
	1 1 1.00 60.00 120.00
	 6975 6450 8700 6525
2 1 0 1 -1 7 0 0 -1 0.000 0 0 -1 1 0 2
	1 1 1.00 60.00 120.00
	 6000 3975 8100 5325
2 1 0 1 -1 7 0 0 -1 0.000 0 0 -1 0 0 2
	 8100 5625 8100 5775
2 1 0 1 -1 7 0 0 -1 0.000 0 0 -1 1 0 2
	1 1 1.00 60.00 120.00
	 8175 6075 9000 6375
2 1 0 1 -1 7 0 0 -1 0.000 0 0 -1 1 0 2
	1 1 1.00 60.00 120.00
	 9000 6600 9000 6900
2 1 0 1 -1 7 0 0 -1 0.000 0 0 -1 1 0 2
	1 1 1.00 60.00 120.00
	 9000 7125 9000 7425
2 1 0 1 -1 7 0 0 -1 0.000 0 0 -1 1 0 2
	1 1 1.00 60.00 120.00
	 9000 7650 9000 8625
2 1 0 1 -1 7 0 0 -1 0.000 0 0 -1 1 0 2
	1 1 1.00 60.00 120.00
	 9000 8925 9000 10350
2 1 0 1 -1 7 0 0 -1 0.000 0 0 -1 1 0 2
	1 1 1.00 60.00 120.00
	 9000 10650 9000 11625
2 1 0 1 -1 7 0 0 -1 0.000 0 0 -1 1 0 2
	1 1 1.00 60.00 120.00
	 9000 11850 9000 12825
2 1 0 1 -1 7 0 0 -1 0.000 0 0 -1 1 0 2
	1 1 1.00 60.00 120.00
	 9900 11700 10200 11850
2 1 0 1 -1 7 0 0 -1 0.000 0 0 -1 1 0 2
	1 1 1.00 60.00 120.00
	 4800 4945 2625 7615
2 1 0 1 -1 7 0 0 -1 0.000 0 0 -1 1 0 2
	1 1 1.00 60.00 120.00
	 3615 7285 2715 7645
2 1 0 1 -1 7 0 0 -1 0.000 0 0 -1 1 0 2
	1 1 1.00 60.00 120.00
	 6495 6490 3375 7800
2 1 0 1 -1 7 0 0 -1 0.000 0 0 -1 0 0 2
	 2700 7885 2700 8110
2 1 0 1 -1 7 0 0 -1 0.000 0 0 -1 0 0 2
	 2700 8335 2700 8560
2 1 0 1 -1 7 0 0 -1 0.000 0 0 -1 1 0 2
	1 1 1.00 60.00 120.00
	 2700 8725 2700 9010
2 1 0 1 -1 7 0 0 -1 0.000 0 0 -1 1 0 2
	1 1 1.00 60.00 120.00
	 2700 9225 2700 10125
2 1 0 1 -1 7 0 0 -1 0.000 0 0 -1 1 0 2
	1 1 1.00 60.00 120.00
	 2700 10350 2700 11325
2 1 0 1 -1 7 0 0 -1 0.000 0 0 -1 1 0 2
	1 1 1.00 60.00 120.00
	 8850 7650 5850 9525
2 1 0 1 -1 7 0 0 -1 0.000 0 0 -1 1 0 2
	1 1 1.00 60.00 120.00
	 8850 8925 2850 11250
2 1 0 1 -1 7 0 0 -1 0.000 0 0 -1 1 0 2
	1 1 1.00 60.00 120.00
	 5100 9675 3450 10200
4 0 -1 0 0 30 14 0.0000000 4 150 540 286 1279 1971\001
4 0 -1 0 0 30 14 0.0000000 4 150 540 256 1882 1972\001
4 0 -1 0 0 30 14 0.0000000 4 150 540 256 2455 1973\001
4 0 -1 0 0 30 14 0.0000000 4 150 540 256 3058 1974\001
4 0 -1 0 0 30 14 0.0000000 4 150 540 271 3676 1975\001
4 0 -1 0 0 30 14 0.0000000 4 150 540 271 4279 1976\001
4 0 -1 0 0 30 14 0.0000000 4 150 540 271 4882 1977\001
4 0 -1 0 0 30 14 0.0000000 4 150 540 271 5470 1978\001
4 0 -1 0 0 30 14 0.0000000 4 150 540 271 6073 1979\001
4 0 -1 0 0 30 14 0.0000000 4 150 540 271 6676 1980\001
4 0 -1 0 0 30 14 0.0000000 4 150 540 286 7294 1981\001
4 0 -1 0 0 30 14 0.0000000 4 150 540 271 7876 1982\001
4 0 -1 0 0 30 14 0.0000000 4 150 540 286 8494 1983\001
4 0 -1 0 0 30 14 0.0000000 4 150 540 256 9097 1984\001
4 0 -1 0 0 30 14 0.0000000 4 150 540 256 9685 1985\001
4 0 -1 0 0 30 14 0.0000000 4 150 540 271 10288 1986\001
4 0 -1 0 0 30 14 0.0000000 4 150 540 256 10876 1987\001
4 0 -1 0 0 30 14 0.0000000 4 150 540 256 11479 1988\001
4 0 -1 0 0 30 14 0.0000000 4 150 540 256 12082 1989\001
4 0 -1 0 0 30 16 0.0000000 4 195 555 1515 549 PWB\001
4 0 -1 0 0 30 16 0.0000000 4 195 1170 5145 555 Research\001
4 0 -1 0 0 0 16 0.0000000 4 165 1080 5175 1740 1st Edition\001
4 0 -1 0 0 0 16 0.0000000 4 165 1155 5130 2157 2nd Edition\001
4 0 -1 0 0 0 16 0.0000000 4 165 1125 5145 2619 3rd Edition\001
4 0 -1 0 0 0 16 0.0000000 4 180 1110 5175 2976 4th Edition\001
4 0 -1 0 0 0 16 0.0000000 4 165 1110 5160 3378 5th Edition\001
4 0 -1 0 0 0 16 0.0000000 4 165 1110 5160 3945 6th Edition\001
4 0 -1 0 0 0 16 0.0000000 4 165 1110 5160 6132 7th Edition\001
4 0 -1 0 0 0 16 0.0000000 4 165 1110 5160 9759 8th Edition\001
4 0 -1 0 0 0 16 0.0000000 4 165 1110 5145 10746 9th Edition\001
4 0 -1 0 0 0 16 0.0000000 4 165 1230 5055 12528 10th Edition\001
4 0 -1 0 0 0 16 0.0000000 4 165 900 1440 4884 PWB 1.0\001
4 0 -1 0 0 0 16 0.0000000 4 165 900 1440 5493 PWB 2.0\001
4 0 -1 0 0 0 16 0.0000000 4 195 1230 1170 3315 PWB/UNIX\001
4 0 -1 0 0 0 16 0.0000000 4 165 645 3585 4899 TS 1.0\001
4 0 -1 0 0 0 16 0.0000000 4 165 1005 4515 4905 CB UNIX\001
4 0 -1 0 0 30 16 0.0000000 4 195 525 3660 561 USG\001
4 0 -1 0 0 0 16 0.0000000 4 165 690 2640 3090 MERT\001
4 0 -1 0 0 0 16 0.0000000 4 165 675 2670 4887 RT 1.0\001
4 0 -1 0 0 0 16 0.0000000 4 165 645 3600 5481 TS 2.0\001
4 0 -1 0 0 0 16 0.0000000 4 165 645 3600 7278 TS 3.0\001
4 0 -1 0 0 0 16 0.0000000 4 165 420 6570 6534 32V\001
4 0 -1 0 0 0 16 0.0000000 4 165 600 7800 6003 2BSD\001
4 0 -1 0 0 0 16 0.0000000 4 165 600 7800 5601 1BSD\001
4 0 -1 0 0 0 16 0.0000000 4 165 600 8760 6585 3BSD\001
4 0 -1 0 0 0 16 0.0000000 4 180 600 8730 7140 4BSD\001
4 0 -1 0 0 0 16 0.0000000 4 180 780 8640 7605 4.1BSD\001
4 0 -1 0 0 0 16 0.0000000 4 180 780 8670 8853 4.2BSD\001
4 0 -1 0 0 0 16 0.0000000 4 180 780 8670 10590 4.3BSD\001
4 0 -1 0 0 0 16 0.0000000 4 180 1515 8340 11787 4.3Tahoe-BSD\001
4 0 -1 0 0 0 16 0.0000000 4 180 1425 8445 12984 4.3Reno-BSD\001
4 0 -1 0 0 0 16 0.0000000 4 165 660 10260 12036 NET 1\001
4 0 -1 0 0 30 16 0.0000000 4 240 1155 8025 555 Berkeley\001
4 0 -1 0 0 0 16 0.0000000 4 225 1245 2100 11490 System VR4\001
4 0 -1 0 0 0 16 0.0000000 4 225 1245 2085 9156 System VR2\001
4 0 -1 0 0 0 16 0.0000000 4 225 1245 2115 10293 System VR3\001
4 0 -1 0 0 0 16 0.0000000 4 225 960 2250 8700 System V\001
4 0 -1 0 0 0 16 0.0000000 4 225 1035 2250 8325 System IV\001
4 0 -1 0 0 0 16 0.0000000 4 225 1005 2325 7875 System III\001
