drwxrwxr-x 267/10            0 Aug 21 15:51 1983 ./
drwxrwxr-x 267/10            0 Jun 19 08:46 1983 ./data/
drwxrwxr-x 267/10            0 Jul  8 23:06 1983 ./data/base/
drwxrwxr-x 267/10            0 Aug 21 15:51 1983 ./data/base/demo/
-rw------- 267/10        10240 Jul  2 06:07 1983 ./data/base/demo/relation    aa
-rw------- 267/10        10240 Jul  2 06:07 1983 ./data/base/demo/attribute   aa
-rw------- 267/10         5120 May 28 07:24 1983 ./data/base/demo/indexes     aa
-rw------- 267/10        10240 May 28 07:24 1983 ./data/base/demo/tree        aa
-rw------- 267/10        10240 May 28 07:24 1983 ./data/base/demo/protect     aa
-rw------- 267/10        10240 May 28 07:24 1983 ./data/base/demo/integrities aa
-rw------- 267/10          748 May 28 07:24 1983 ./data/base/demo/admin
-rw------- 267/10         1024 May 20 06:03 1983 ./data/base/demo/item        aa
-rw------- 267/10         1024 May 20 06:03 1983 ./data/base/demo/sale        aa
-rw------- 267/10         1024 May 20 06:03 1983 ./data/base/demo/employee    aa
-rw------- 267/10         1024 May 20 06:03 1983 ./data/base/demo/dept        aa
-rw------- 267/10         1024 May 20 06:03 1983 ./data/base/demo/supplier    aa
-rw------- 267/10         1024 May 20 06:03 1983 ./data/base/demo/store       aa
-rw------- 267/10        10240 Jul  2 06:05 1983 ./data/base/demo/parts       aa
-rw------- 267/10         1024 May 20 06:03 1983 ./data/base/demo/supply      aa
-rw------- 267/10            0 May 20 06:51 1983 ./data/base/demo/_SYSnewr3785
-rw------- 267/10            0 May 20 06:51 1983 ./data/base/demo/_SYSsort3785
-rw------- 267/10          368 May 20 06:51 1983 ./data/base/demo/_SYSdesc3785
drwxrwxr-x 267/10            0 Aug 19 11:23 1983 ./data/base/new/
-rw------- 267/10         1024 Jul  1 09:49 1983 ./data/base/new/relation    aa
-rw------- 267/10         3072 Jul  1 09:49 1983 ./data/base/new/attribute   aa
-rw------- 267/10         1024 Jul  1 09:49 1983 ./data/base/new/indexes     aa
-rw------- 267/10         1024 Jul  1 09:49 1983 ./data/base/new/tree        aa
-rw------- 267/10         1024 Jul  1 09:49 1983 ./data/base/new/protect     aa
-rw------- 267/10         1024 Jul  1 09:49 1983 ./data/base/new/integrities aa
-rw------- 267/10          748 Jul  1 09:49 1983 ./data/base/new/admin
drwxrwxr-x 267/10            0 Jul  8 23:06 1983 ./data/base/nexer/
-rw------- 267/10        10240 Jul  7 15:42 1983 ./data/base/nexer/relation    aa
-rw------- 267/10        12288 Jul  7 15:42 1983 ./data/base/nexer/attribute   aa
-rw------- 267/10         5120 Jul  7 15:42 1983 ./data/base/nexer/indexes     aa
-rw------- 267/10        10240 Jul  7 15:16 1983 ./data/base/nexer/tree        aa
-rw------- 267/10        10240 Jul  7 15:16 1983 ./data/base/nexer/protect     aa
-rw------- 267/10        10240 Jul  7 15:16 1983 ./data/base/nexer/integrities aa
-rw------- 267/10          748 Jul  7 14:47 1983 ./data/base/nexer/admin
-rw------- 267/10         1024 Jul  7 15:15 1983 ./data/base/nexer/item        aa
-rw------- 267/10         1024 Jul  7 15:15 1983 ./data/base/nexer/supplier    aa
-rw------- 267/10         1024 Jul  7 15:17 1983 ./data/base/nexer/prime       aa
drwxrwxr-x 267/10            0 Jun 19 08:46 1983 ./demo/
-r--r--r-- 267/10          368 Nov 12 14:14 1982 ./demo/supply
-r--r--r-- 267/10         2115 Nov 12 14:14 1982 ./demo/qry
-r--r--r-- 267/10          256 Nov 12 14:14 1982 ./demo/sale
-r--r--r-- 267/10          266 Nov 12 14:14 1982 ./demo/supplier
-r--r--r-- 267/10          750 Nov 12 14:14 1982 ./demo/employee
-r--r--r-- 267/10          532 Nov 12 14:14 1982 ./demo/dept
-r--r--r-- 267/10          600 Nov 12 14:14 1982 ./demo/item
-r--r--r-- 267/10          476 Nov 12 14:14 1982 ./demo/parts
-r--r--r-- 267/10           69 Nov 12 14:14 1982 ./demo/store
-r--r--r-- 267/10         5840 Nov 12 14:14 1982 ./demo/DEMO
drwxrwxr-x 267/10            0 Jun 19 08:46 1983 ./files/
-r--r--r-- 267/10          154 Jan 25 05:41 1983 ./files/users
-r--r--r-- 267/10         1641 Oct 30 08:24 1982 ./files/READ_ME
-r--r--r-- 267/10          851 Oct 30 08:24 1982 ./files/dbtmplt7
-r--r--r-- 267/10          528 Oct 30 08:24 1982 ./files/equel7
-r--r--r-- 267/10         1134 Oct 30 08:24 1982 ./files/equel7P
-r--r--r-- 267/10           37 Oct 30 08:24 1982 ./files/error7_0
-r--r--r-- 267/10          293 Oct 30 08:24 1982 ./files/error7_1
-r--r--r-- 267/10         5814 Oct 30 08:24 1982 ./files/error7_2
-r--r--r-- 267/10         1036 Oct 30 08:24 1982 ./files/error7_3
-r--r--r-- 267/10         1132 Oct 30 08:24 1982 ./files/error7_4
-r--r--r-- 267/10         3948 Oct 30 08:24 1982 ./files/error7_5
-r--r--r-- 267/10          184 Oct 30 08:24 1982 ./files/error7_6
-r--r--r-- 267/10          683 Oct 30 08:24 1982 ./files/proctab7
-r--r--r-- 267/10         1445 Oct 30 08:24 1982 ./files/proctab7P
-r--r--r-- 267/10          683 Oct 30 08:24 1982 ./files/proctab7V
-r--r--r-- 267/10          284 Oct 30 08:24 1982 ./files/startup
-r--r--r-- 267/10           43 Oct 30 08:24 1982 ./files/usage
-rw-r--r-- 267/10           74 May 28 07:16 1983 ./.rhosts
-rw-r--r-- 267/10            3 Nov 16 05:24 1982 ./.msgsrc
drwxrwxr-x 267/10            0 Sep 28 04:36 1983 ./bin/
-rw-r--r-- 267/10           80 Sep 28 04:36 1983 ./bin/motd
-rwsr----- 267/10       200704 Sep 28 04:36 1983 ./bin/vaxingres
-rwsr----- 267/10        51200 Sep 28 04:36 1983 ./bin/sysdump
-rwxr-x--x 267/10        63488 Sep 28 04:36 1983 ./bin/monitor
-rwsr----- 267/10        22528 Sep 28 04:36 1983 ./bin/ksort7
-rwsr-x--x 267/10        31744 Sep 28 04:36 1983 ./bin/ingres
-rwxr-xr-x 267/10        39936 Sep 28 04:36 1983 ./bin/equel
-rwsr-x--x 267/10        56320 Sep 28 04:36 1983 ./bin/creatdb
-rwsr-x--x 267/10        24576 Sep 28 04:36 1983 ./bin/destroydb
-rwsr-x--x 267/10        46080 Sep 28 04:36 1983 ./bin/helpr
-rwsr-x--x 267/10        45056 Sep 28 04:36 1983 ./bin/printr
-rwsr-x--x 267/10        51200 Sep 28 04:36 1983 ./bin/purge
-rwsr-x--x 267/10        67584 Sep 28 04:36 1983 ./bin/restore
-rwx------ 267/10        12288 Sep 28 04:36 1983 ./bin/usersetup
-rwsr-x--x 267/10        25600 Sep 28 04:36 1983 ./bin/printadmin
-rwxr-xr-x 267/10         2497 Sep 28 04:36 1983 ./bin/demodb
-rw-r--r-- 0/10           2717 Sep 28 04:36 1983 ./bin/create.q
-rwsr-x--x 267/10        65536 Sep 28 04:36 1983 ./bin/sysmod
-rwxr-x--x 267/10        16384 Sep 28 04:36 1983 ./bin/lockd
-rwxr-x--x 0/10          15360 Sep 28 04:36 1983 ./bin/ingres_lock
drwxrwxr-x 267/10            0 Jun 19 09:01 1983 ./source/
drwxrwxr-x 267/10            0 Aug 21 15:48 1983 ./source/qrymod/
-r--r--r-- 267/10         3845 Oct 29 15:15 1982 ./source/qrymod/Makefile
-r--r--r-- 267/10         5078 Oct 29 15:16 1982 ./source/qrymod/d_integ.c
-r--r--r-- 267/10        11349 Sep 26 11:01 1983 ./source/qrymod/d_prot.c
-r--r--r-- 267/10         2072 Oct 29 15:16 1982 ./source/qrymod/d_view.c
-r--r--r-- 267/10         3975 Oct 29 15:16 1982 ./source/qrymod/integrity.c
-r--r--r-- 267/10         1611 Oct 29 15:16 1982 ./source/qrymod/issue.c
-r--r--r-- 267/10         7079 Oct 29 15:16 1982 ./source/qrymod/norml.c
-r--r--r-- 267/10        23604 Oct 29 15:16 1982 ./source/qrymod/protect.c
-r--r--r-- 267/10         4344 Oct 29 15:16 1982 ./source/qrymod/puttree.c
-r--r--r-- 267/10         2391 Oct 29 15:16 1982 ./source/qrymod/qrymod.c
-r--r--r-- 267/10          663 Oct 29 15:16 1982 ./source/qrymod/qrymod.h
-r--r--r-- 267/10          940 Oct 29 15:16 1982 ./source/qrymod/tree.c
-r--r--r-- 267/10         7475 Oct 29 15:16 1982 ./source/qrymod/trscan.c
-r--r--r-- 267/10         7914 Oct 29 15:16 1982 ./source/qrymod/util.c
-r--r--r-- 267/10        12343 Oct 29 15:16 1982 ./source/qrymod/view.c
drwxrwxr-x 267/10            0 Aug 21 15:47 1983 ./source/equel/
-r--r--r-- 267/10         2796 Nov  6 17:10 1982 ./source/equel/Makefile
-r--r--r-- 267/10         1097 Nov  6 17:10 1982 ./source/equel/cmap.c
-r--r--r-- 267/10         1521 Nov  6 17:10 1982 ./source/equel/comment.c
-r--r--r-- 267/10         2613 Nov  6 17:10 1982 ./source/equel/constants.h
-r--r--r-- 267/10         5524 Nov  6 17:10 1982 ./source/equel/cvar.c
-r--r--r-- 267/10         3103 Nov  6 17:10 1982 ./source/equel/tokens.y
-r--r--r-- 267/10         3081 Sep 28 04:20 1983 ./source/equel/getch.c
-r--r--r-- 267/10          842 Nov  6 17:10 1982 ./source/equel/getkey.c
-r--r--r-- 267/10         5632 Nov  6 17:10 1982 ./source/equel/globals.h
-r--r--r-- 267/10        20136 Nov  6 17:10 1982 ./source/equel/grammar.y
-r--r--r-- 267/10         4845 Sep 28 04:20 1983 ./source/equel/include.c
-r--r--r-- 267/10         5769 Sep 28 04:20 1983 ./source/equel/main.c
-r--r--r-- 267/10         1181 Nov  6 17:10 1982 ./source/equel/nalloc.c
-r--r--r-- 267/10         2136 Nov  6 17:10 1982 ./source/equel/name.c
-r--r--r-- 267/10         2380 Nov  6 17:10 1982 ./source/equel/number.c
-r--r--r-- 267/10         1836 Nov  6 17:10 1982 ./source/equel/operator.c
-r--r--r-- 267/10         3791 Nov  6 17:10 1982 ./source/equel/parser.c
-r--r--r-- 267/10         5748 Nov  6 17:10 1982 ./source/equel/prtout.c
-r--r--r-- 267/10         2670 Nov  6 17:10 1982 ./source/equel/retrieve.c
-r--r--r-- 267/10         1535 Nov  6 17:10 1982 ./source/equel/string.c
-r--r--r-- 267/10         1686 Sep 28 04:20 1983 ./source/equel/yyerror.c
-r--r--r-- 267/10         2636 Nov  6 17:10 1982 ./source/equel/yylex.c
-r--r--r-- 267/10         7161 Nov  6 17:11 1982 ./source/equel/display.c
drwxrwxr-x 267/10            0 Aug 21 15:47 1983 ./source/libq/
-r--r--r-- 267/10         1289 Nov  6 17:11 1982 ./source/libq/IIatoi.c
-r--r--r-- 267/10          453 Nov  6 17:11 1982 ./source/libq/IIbmove.c
-r--r--r-- 267/10          530 Nov  6 17:11 1982 ./source/libq/IIconcatv.c
-r--r--r-- 267/10         2981 Nov  6 17:11 1982 ./source/libq/IIconvert.c
-r--r--r-- 267/10         1071 Nov  6 17:11 1982 ./source/libq/IIcvar.c
-r--r--r-- 267/10         2064 May 20 07:29 1983 ./source/libq/IIerror.c
-r--r--r-- 267/10         1286 Nov  6 17:11 1982 ./source/libq/IIexit.c
-r--r--r-- 267/10          690 Nov  6 17:11 1982 ./source/libq/IIflushtup.c
-r--r--r-- 267/10         2587 Nov  6 17:11 1982 ./source/libq/IIgetc.c
-r--r--r-- 267/10         1694 Nov  6 17:11 1982 ./source/libq/IIgettup.c
-r--r--r-- 267/10         2431 Nov  6 17:11 1982 ./source/libq/IIglobals.h
-r--r--r-- 267/10         4311 Sep 28 04:20 1983 ./source/libq/IIingres.c
-r--r--r-- 267/10          561 Nov  6 17:11 1982 ./source/libq/IIitos.c
-r--r--r-- 267/10          364 Nov  6 17:11 1982 ./source/libq/IIlength.c
-r--r--r-- 267/10         1742 Nov  6 17:11 1982 ./source/libq/IIn_get.c
-r--r--r-- 267/10         2448 Nov  6 17:11 1982 ./source/libq/IIn_ret.c
-r--r--r-- 267/10         2544 Nov  6 17:11 1982 ./source/libq/IIp_err.c
-r--r--r-- 267/10          759 Nov  6 17:11 1982 ./source/libq/IIpb_flush.c
-r--r--r-- 267/10         1267 Nov  6 17:11 1982 ./source/libq/IIpb_get.c
-r--r--r-- 267/10         1025 Nov  6 17:11 1982 ./source/libq/IIpb_prime.c
-r--r--r-- 267/10          980 Nov  6 17:11 1982 ./source/libq/IIpb_put.c
-r--r--r-- 267/10         1841 Nov  6 17:11 1982 ./source/libq/IIpb_read.c
-r--r--r-- 267/10          391 Nov  6 17:11 1982 ./source/libq/IIpb_rphys.c
-r--r--r-- 267/10          434 Nov  6 17:11 1982 ./source/libq/IIpb_wphys.c
-r--r--r-- 267/10          659 Nov  6 17:11 1982 ./source/libq/IIpb_write.c
-r--r--r-- 267/10         2971 Nov  6 17:11 1982 ./source/libq/IIreadinp.c
-r--r--r-- 267/10         1245 Sep 28 04:20 1983 ./source/libq/IIresync.c
-r--r--r-- 267/10          946 Nov  6 17:11 1982 ./source/libq/IIretrieve.c
-r--r--r-- 267/10          454 Nov  6 17:11 1982 ./source/libq/IIsequal.c
-r--r--r-- 267/10          441 Nov  6 17:11 1982 ./source/libq/IIsetup.c
-r--r--r-- 267/10          755 Nov  6 17:11 1982 ./source/libq/IIsync.c
-r--r--r-- 267/10          968 Nov  6 17:11 1982 ./source/libq/IIsyserr.c
-r--r--r-- 267/10         2551 Nov  6 17:11 1982 ./source/libq/IIw_left.c
-r--r--r-- 267/10         2285 Nov  6 17:11 1982 ./source/libq/IIw_right.c
-r--r--r-- 267/10          679 Nov  6 17:11 1982 ./source/libq/IIwrite.c
-r--r--r-- 267/10         3971 Nov  6 17:11 1982 ./source/libq/Makefile
-r--r--r-- 267/10          176 Nov  6 17:12 1982 ./source/libq/IIpb_flush
drwxrwxr-x 267/10            0 Aug 21 15:47 1983 ./source/monitor/
-r--r--r-- 267/10         2971 Nov 13 09:08 1982 ./source/monitor/tags
-r--r--r-- 267/10         3707 Nov 13 09:55 1982 ./source/monitor/Makefile
-r--r--r-- 267/10         1488 Oct 29 15:09 1982 ./source/monitor/branch.c
-r--r--r-- 267/10         4017 Oct 29 15:09 1982 ./source/monitor/buf.c
-r--r--r-- 267/10          217 Oct 29 15:09 1982 ./source/monitor/buf.h
-r--r--r-- 267/10          469 Oct 29 15:09 1982 ./source/monitor/clear.c
-r--r--r-- 267/10          880 Oct 29 15:09 1982 ./source/monitor/clrline.c
-r--r--r-- 267/10         1077 Oct 29 15:09 1982 ./source/monitor/edit.c
-r--r--r-- 267/10         1328 Oct 29 15:09 1982 ./source/monitor/eval.c
-r--r--r-- 267/10         9513 Oct 29 15:09 1982 ./source/monitor/expr.c
-r--r--r-- 267/10          475 Oct 29 15:09 1982 ./source/monitor/getch.c
-r--r--r-- 267/10          829 Oct 29 15:09 1982 ./source/monitor/getfilenm.c
-r--r--r-- 267/10         1481 Oct 29 15:09 1982 ./source/monitor/go.c
-r--r--r-- 267/10         1453 Oct 29 15:09 1982 ./source/monitor/include.c
-r--r--r-- 267/10        36091 Oct 29 15:09 1982 ./source/monitor/mac.c
-r--r--r-- 267/10          912 Oct 29 15:09 1982 ./source/monitor/mcall.c
-r--r--r-- 267/10         4972 Oct 29 15:09 1982 ./source/monitor/monitor.c
-r--r--r-- 267/10         1902 Oct 29 15:10 1982 ./source/monitor/monitor.h
-r--r--r-- 267/10          314 Oct 29 15:10 1982 ./source/monitor/newdirec.c
-r--r--r-- 267/10          655 Oct 29 15:10 1982 ./source/monitor/print.c
-r--r--r-- 267/10          604 Oct 29 15:10 1982 ./source/monitor/prompt.c
-r--r--r-- 267/10         2974 Jul  7 16:33 1983 ./source/monitor/quit.c
-r--r--r-- 267/10         1192 Oct 29 15:10 1982 ./source/monitor/shell.c
-r--r--r-- 267/10         1074 Oct 29 15:10 1982 ./source/monitor/syscntrl.c
-r--r--r-- 267/10         1623 Oct 29 15:10 1982 ./source/monitor/trapquery.c
-r--r--r-- 267/10         7080 Sep 28 04:20 1983 ./source/monitor/ttymon.c
-r--r--r-- 267/10          874 Oct 29 15:10 1982 ./source/monitor/writeout.c
-r--r--r-- 267/10          924 Oct 29 15:10 1982 ./source/monitor/xwait.c
drwxrwxr-x 267/10            0 Aug 21 15:49 1983 ./source/conf/
-r--r--r-- 267/10         8798 Nov 13 09:55 1982 ./source/conf/Makefile
-r--r--r-- 267/10         1016 Oct 29 15:00 1982 ./source/conf/alldbu.c
-r--r--r-- 267/10          250 Oct 29 15:00 1982 ./source/conf/decomp.c
-r--r--r-- 267/10          250 Oct 29 15:00 1982 ./source/conf/monitor.c
-r--r--r-- 267/10          397 Oct 29 15:00 1982 ./source/conf/parser.c
-r--r--r-- 267/10          380 Oct 29 15:00 1982 ./source/conf/qrymod.c
-r--r--r-- 267/10          574 Oct 29 15:00 1982 ./source/conf/sysdump.c
-r--r--r-- 267/10         1758 Oct 29 15:00 1982 ./source/conf/vaxingres.c
-r--r--r-- 267/10          437 Oct 29 15:00 1982 ./source/conf/version.c
-r--r--r-- 267/10         1128 Oct 29 15:00 1982 ./source/conf/history
drwxrwxr-x 267/10            0 Aug 21 15:47 1983 ./source/dbu/
-r--r--r-- 267/10         5330 Oct 29 15:02 1982 ./source/dbu/Makefile
-r--r--r-- 267/10         2723 Oct 29 15:02 1982 ./source/dbu/convert.c
-r--r--r-- 267/10        20224 Sep 28 04:20 1983 ./source/dbu/copy.c
-r--r--r-- 267/10        12484 Sep 28 04:20 1983 ./source/dbu/create.c
-r--r--r-- 267/10         3021 Oct 29 15:02 1982 ./source/dbu/destroy.c
-r--r--r-- 267/10         5371 Sep 28 04:20 1983 ./source/dbu/display.c
-r--r--r-- 267/10         1323 Oct 29 15:02 1982 ./source/dbu/get_p_tid.c
-r--r--r-- 267/10         7383 Sep 28 04:20 1983 ./source/dbu/help.c
-r--r--r-- 267/10         5041 Oct 29 15:02 1982 ./source/dbu/index.c
-r--r--r-- 267/10        10453 Sep 28 04:20 1983 ./source/dbu/ksort.c
-r--r--r-- 267/10        23678 Oct 29 15:02 1982 ./source/dbu/omodify.c
-r--r--r-- 267/10         5138 Oct 29 15:02 1982 ./source/dbu/modupdate.c
-r--r--r-- 267/10        28032 Sep 28 04:20 1983 ./source/dbu/nmodify.c
-r--r--r-- 267/10         9801 Oct 29 15:02 1982 ./source/dbu/pr_prot.c
-r--r--r-- 267/10         9612 Oct 29 15:02 1982 ./source/dbu/pr_tree.c
-r--r--r-- 267/10         3594 Oct 29 15:02 1982 ./source/dbu/print.c
-r--r--r-- 267/10          942 Oct 29 15:02 1982 ./source/dbu/purgetup.c
-r--r--r-- 267/10         2526 Oct 29 15:02 1982 ./source/dbu/rdwrbatch.c
-r--r--r-- 267/10         1425 Oct 29 15:02 1982 ./source/dbu/resetrel.c
-r--r--r-- 267/10        16099 Sep 28 04:20 1983 ./source/dbu/rmqm.c
-r--r--r-- 267/10          746 Oct 29 15:02 1982 ./source/dbu/rupdate.c
-r--r--r-- 267/10         4461 Sep 28 04:20 1983 ./source/dbu/save.c
-r--r--r-- 267/10         4121 Oct 29 15:02 1982 ./source/dbu/secupdate.c
-r--r--r-- 267/10         2751 Oct 29 15:02 1982 ./source/dbu/seq_atts.c
-r--r--r-- 267/10         4131 Oct 29 15:02 1982 ./source/dbu/udestroy.c
-r--r--r-- 267/10         3156 Oct 29 15:02 1982 ./source/dbu/update.c
-r--r--r-- 267/10        23679 Sep 28 04:20 1983 ./source/dbu/modify.c
-r--r--r-- 267/10         6144 Jan 29 08:16 1983 ./source/dbu/modify.i
drwxrwxr-x 267/10            0 Aug 21 15:47 1983 ./source/gutil/
-r--r--r-- 267/10          262 Sep 28 04:20 1983 ./source/gutil/locv.s
-r--r--r-- 267/10          246 Oct 29 15:05 1982 ./source/gutil/pad.c
-r--r--r-- 267/10         2490 Sep 28 04:20 1983 ./source/gutil/Makefile
-r--r--r-- 267/10          498 Oct 29 15:05 1982 ./source/gutil/append.c
-r--r--r-- 267/10         2037 Sep 28 04:20 1983 ./source/gutil/atof.c
-r--r--r-- 267/10         1381 Oct 29 15:05 1982 ./source/gutil/atoi.c
-r--r--r-- 267/10         1319 Oct 29 15:05 1982 ./source/gutil/atol.c
-r--r--r-- 267/10          364 Oct 29 15:05 1982 ./source/gutil/bequal.c
-r--r--r-- 267/10          318 Oct 29 15:05 1982 ./source/gutil/bitcnt.c
-r--r--r-- 267/10          452 Oct 29 15:05 1982 ./source/gutil/bitpos.c
-r--r--r-- 267/10         1792 Oct 29 15:05 1982 ./source/gutil/bmove.PDP.s
-r--r--r-- 267/10          148 Oct 29 15:05 1982 ./source/gutil/bmove.VAX.s
-r--r--r-- 267/10          599 Oct 29 15:05 1982 ./source/gutil/cat.c
-r--r--r-- 267/10          473 Oct 29 15:05 1982 ./source/gutil/clrmem.c
-r--r--r-- 267/10          503 Oct 29 15:05 1982 ./source/gutil/concat.c
-r--r--r-- 267/10          410 Oct 29 15:05 1982 ./source/gutil/exit.PDP.s
-r--r--r-- 267/10         1884 Oct 29 15:05 1982 ./source/gutil/freebuf.c
-r--r--r-- 267/10         3255 Oct 29 15:05 1982 ./source/gutil/ftoa.c
-r--r--r-- 267/10         1591 Oct 29 15:05 1982 ./source/gutil/fullwait.c
-r--r--r-- 267/10          675 Oct 29 15:05 1982 ./source/gutil/getufield.c
-r--r--r-- 267/10          300 Oct 29 15:05 1982 ./source/gutil/iocv.c
-r--r--r-- 267/10          350 Oct 29 15:05 1982 ./source/gutil/itoa.c
-r--r--r-- 267/10          294 Oct 29 15:05 1982 ./source/gutil/length.c
-r--r--r-- 267/10          498 Oct 29 15:05 1982 ./source/gutil/lprintf.c
-r--r--r-- 267/10          206 Oct 29 15:05 1982 ./source/gutil/min.c
-r--r--r-- 267/10         2069 Oct 29 15:05 1982 ./source/gutil/need.c
-r--r--r-- 267/10          628 Oct 29 15:05 1982 ./source/gutil/oatoi.c
-r--r--r-- 267/10          507 Oct 29 15:05 1982 ./source/gutil/set_si_buf.c
-r--r--r-- 267/10          600 Oct 29 15:05 1982 ./source/gutil/pmove.c
-r--r--r-- 267/10          656 Oct 29 15:05 1982 ./source/gutil/prargs.c
-r--r--r-- 267/10          811 Oct 29 15:05 1982 ./source/gutil/setflag.c
-r--r--r-- 267/10          352 Oct 29 15:05 1982 ./source/gutil/sequal.c
-r--r--r-- 267/10          863 Oct 29 15:05 1982 ./source/gutil/set_so_buf.c
-r--r--r-- 267/10          520 Oct 29 15:05 1982 ./source/gutil/ztack.c
-r--r--r-- 267/10         1360 Oct 29 15:05 1982 ./source/gutil/scompare.c
-r--r--r-- 267/10          374 Oct 29 15:05 1982 ./source/gutil/smove.c
-r--r--r-- 267/10         1215 Sep 28 04:20 1983 ./source/gutil/syserr.c
-r--r--r-- 267/10          197 Oct 29 15:05 1982 ./source/gutil/tTf.c
-r--r--r-- 267/10         3212 Sep 28 04:20 1983 ./source/gutil/trace.c
-r--r--r-- 267/10          278 Oct 29 15:05 1982 ./source/gutil/wait.s
-r--r--r-- 267/10          548 Oct 29 15:05 1982 ./source/gutil/xalloc.c
-r--r--r-- 267/10          591 Oct 29 15:05 1982 ./source/gutil/xfree.c
-r--r--r-- 267/10          707 Oct 29 15:05 1982 ./source/gutil/xputchar.c
-r--r--r-- 267/10          536 May 20 05:59 1983 ./source/gutil/perror.c
drwxrwxr-x 267/10            0 Aug 21 15:47 1983 ./source/ctlmod/
-r--r--r-- 267/10         4434 Oct 29 15:01 1982 ./source/ctlmod/Makefile
-r--r--r-- 267/10          893 Oct 29 15:01 1982 ./source/ctlmod/av_files.c
-r--r--r-- 267/10         4474 Oct 29 15:01 1982 ./source/ctlmod/call.c
-r--r--r-- 267/10         2907 Oct 29 15:01 1982 ./source/ctlmod/call_fn.c
-r--r--r-- 267/10         1326 Oct 29 15:01 1982 ./source/ctlmod/cm_cleanup.c
-r--r--r-- 267/10          332 Oct 29 15:01 1982 ./source/ctlmod/cm_close.c
-r--r--r-- 267/10          775 Oct 29 15:01 1982 ./source/ctlmod/cm_reset.c
-r--r--r-- 267/10         3421 Oct 30 07:55 1982 ./source/ctlmod/ctlmod.h
-r--r--r-- 267/10         3589 Oct 29 15:01 1982 ./source/ctlmod/do_seq.c
-r--r--r-- 267/10         2155 Oct 29 15:01 1982 ./source/ctlmod/do_st.c
-r--r--r-- 267/10         2318 Oct 29 15:01 1982 ./source/ctlmod/error.c
-r--r--r-- 267/10          365 Oct 29 15:01 1982 ./source/ctlmod/getp.c
-r--r--r-- 267/10         1945 Oct 29 15:01 1982 ./source/ctlmod/init_qt.c
-r--r--r-- 267/10         2157 Oct 29 15:01 1982 ./source/ctlmod/initp.c
-r--r--r-- 267/10         7162 Sep 28 04:20 1983 ./source/ctlmod/main.c
-r--r--r-- 267/10         1587 Oct 29 15:01 1982 ./source/ctlmod/mapvars.c
-r--r--r-- 267/10         2189 Oct 29 15:01 1982 ./source/ctlmod/monitor.c
-r--r--r-- 267/10          972 Oct 29 15:01 1982 ./source/ctlmod/pb_dump.c
-r--r--r-- 267/10          771 Oct 29 15:01 1982 ./source/ctlmod/pb_flush.c
-r--r--r-- 267/10         1500 Oct 29 15:01 1982 ./source/ctlmod/pb_get.c
-r--r--r-- 267/10         1058 Oct 29 15:01 1982 ./source/ctlmod/pb_prime.c
-r--r--r-- 267/10         1111 Oct 29 15:01 1982 ./source/ctlmod/pb_put.c
-r--r--r-- 267/10         3213 Oct 29 15:01 1982 ./source/ctlmod/pb_read.c
-r--r--r-- 267/10          422 Oct 29 15:01 1982 ./source/ctlmod/pb_rphys.c
-r--r--r-- 267/10          646 Oct 29 15:01 1982 ./source/ctlmod/pb_tput.c
-r--r--r-- 267/10          563 Oct 29 15:01 1982 ./source/ctlmod/pb_wphys.c
-r--r--r-- 267/10         1352 Oct 29 15:01 1982 ./source/ctlmod/pb_write.c
-r--r--r-- 267/10         1755 Oct 29 15:01 1982 ./source/ctlmod/pipes.h
-r--r--r-- 267/10          548 Oct 29 15:01 1982 ./source/ctlmod/proc.h
-r--r--r-- 267/10         3230 Oct 29 15:01 1982 ./source/ctlmod/proc_err.c
-r--r--r-- 267/10         1501 Oct 29 15:01 1982 ./source/ctlmod/prvect.c
-r--r--r-- 267/10         2099 Oct 29 15:01 1982 ./source/ctlmod/range.c
-r--r--r-- 267/10         4092 Oct 29 15:01 1982 ./source/ctlmod/readinput.c
-r--r--r-- 267/10         1327 Oct 29 15:01 1982 ./source/ctlmod/readmon.c
-r--r--r-- 267/10         5422 Oct 29 15:01 1982 ./source/ctlmod/readqry.c
-r--r--r-- 267/10         1765 Oct 29 15:01 1982 ./source/ctlmod/resetp.c
-r--r--r-- 267/10         2470 Oct 29 15:01 1982 ./source/ctlmod/send_off.c
-r--r--r-- 267/10         1724 Oct 29 15:01 1982 ./source/ctlmod/setp.c
-r--r--r-- 267/10          819 Oct 29 15:01 1982 ./source/ctlmod/state.h
-r--r--r-- 267/10         2152 Oct 29 15:01 1982 ./source/ctlmod/sysdump.c
-r--r--r-- 267/10         3815 Oct 29 15:01 1982 ./source/ctlmod/treepr.c
-r--r--r-- 267/10         2493 Oct 29 15:01 1982 ./source/ctlmod/writeqry.c
-r--r--r-- 267/10         6499 Jan 31 17:26 1983 ./source/ctlmod/tmp.c
drwxrwxr-x 267/10            0 Aug 21 15:47 1983 ./source/decomp/
-r--r--r-- 267/10         5817 Oct 29 15:03 1982 ./source/decomp/Makefile
-r--r--r-- 267/10         3766 Oct 29 15:03 1982 ./source/decomp/ageval.c
-r--r--r-- 267/10         1791 Oct 29 15:03 1982 ./source/decomp/decomp.h
-r--r--r-- 267/10         8332 Oct 29 15:03 1982 ./source/decomp/byeval.c
-r--r--r-- 267/10         1073 Oct 29 15:03 1982 ./source/decomp/call_dbu.c
-r--r--r-- 267/10         7686 Oct 29 15:03 1982 ./source/decomp/call_ovqp.c
-r--r--r-- 267/10         1141 Oct 29 15:03 1982 ./source/decomp/de_init.c
-r--r--r-- 267/10        10227 Oct 29 15:03 1982 ./source/decomp/decision.c
-r--r--r-- 267/10         7071 Sep 28 04:20 1983 ./source/decomp/decomp.c
-r--r--r-- 267/10        15245 Oct 29 15:03 1982 ./source/decomp/aggregate.c
-r--r--r-- 267/10          212 Oct 29 15:03 1982 ./source/decomp/error.c
-r--r--r-- 267/10         4389 Oct 29 15:03 1982 ./source/decomp/exec_sq.c
-r--r--r-- 267/10         4785 Oct 30 08:31 1982 ./source/decomp/globs.h
-r--r--r-- 267/10         1758 Oct 29 15:03 1982 ./source/decomp/lockit.c
-r--r--r-- 267/10         3045 Oct 29 15:03 1982 ./source/decomp/makenode.c
-r--r--r-- 267/10         1377 Oct 29 15:03 1982 ./source/decomp/mapvar.c
-r--r--r-- 267/10          655 Oct 29 15:03 1982 ./source/decomp/mklist.c
-r--r--r-- 267/10        10687 Oct 29 15:03 1982 ./source/decomp/openrs.c
-r--r--r-- 267/10          374 Oct 29 15:03 1982 ./source/decomp/prlinks.c
-r--r--r-- 267/10         1607 Oct 29 15:03 1982 ./source/decomp/pull_const.c
-r--r--r-- 267/10         5242 Oct 29 15:03 1982 ./source/decomp/pull_sq.c
-r--r--r-- 267/10         3336 Oct 29 15:03 1982 ./source/decomp/qryproc.c
-r--r--r-- 267/10         2304 Oct 29 15:03 1982 ./source/decomp/rangetable.c
-r--r--r-- 267/10         2279 Oct 29 15:03 1982 ./source/decomp/rnum.c
-r--r--r-- 267/10         6987 Oct 29 15:03 1982 ./source/decomp/reduction.c
-r--r--r-- 267/10        14313 Oct 29 15:03 1982 ./source/decomp/reformat.c
-r--r--r-- 267/10          407 Oct 29 15:03 1982 ./source/decomp/reinit.c
-r--r--r-- 267/10         1620 Oct 29 15:03 1982 ./source/decomp/ret_unique.c
-r--r--r-- 267/10         4137 Oct 29 15:03 1982 ./source/decomp/selectv.c
-r--r--r-- 267/10         2314 Oct 29 15:03 1982 ./source/decomp/setvar.c
-r--r--r-- 267/10         3866 Oct 29 15:03 1982 ./source/decomp/tempvar.c
-r--r--r-- 267/10         2973 Oct 29 15:03 1982 ./source/decomp/usubr.c
-r--r--r-- 267/10         5394 Oct 29 15:05 1982 ./source/decomp/tags
drwxrwxr-x 267/10            0 Jul  8 23:12 1983 ./source/h/
-r--r--r-- 267/10           50 Jul  8 05:09 1983 ./source/h/sccs.h
-r--r--r-- 267/10          581 Oct 29 15:06 1982 ./source/h/Makefile
-r--r--r-- 267/10         4735 Oct 29 15:06 1982 ./source/h/access.h
-r--r--r-- 267/10         4941 Oct 29 15:06 1982 ./source/h/aux.h
-r--r--r-- 267/10         1690 Oct 29 15:06 1982 ./source/h/batch.h
-r--r--r-- 267/10         4003 Oct 29 15:06 1982 ./source/h/catalog.h
-r--r--r-- 267/10          723 Oct 29 15:06 1982 ./source/h/func.h
-r--r--r-- 267/10         4544 Oct 29 15:06 1982 ./source/h/ingres.h
-r--r--r-- 267/10         1074 Oct 29 15:06 1982 ./source/h/lock.h
-r--r--r-- 267/10         3290 May 20 07:10 1983 ./source/h/opsys.h
-r--r--r-- 267/10          441 Oct 29 15:06 1982 ./source/h/pmon.h
-r--r--r-- 267/10          716 Oct 29 15:06 1982 ./source/h/pv.h
-r--r--r-- 267/10         1803 Oct 29 15:06 1982 ./source/h/range.h
-r--r--r-- 267/10          436 Oct 29 15:06 1982 ./source/h/resp.h
-r--r--r-- 267/10         4802 Oct 29 15:06 1982 ./source/h/symbol.h
-r--r--r-- 267/10         3009 Oct 29 15:06 1982 ./source/h/trace.h
-r--r--r-- 267/10         4881 Oct 29 15:06 1982 ./source/h/tree.h
-r--r--r-- 267/10          600 Oct 29 15:06 1982 ./source/h/useful.h
-r--r--r-- 267/10         1036 Oct 29 15:06 1982 ./source/h/version.h
-r--r--r-- 267/10          628 Oct 29 15:06 1982 ./source/h/depend.sed
-r--r--r-- 267/10         1683 May 19 15:08 1983 ./source/h/ildr.h
drwxrwxr-x 267/10            0 Aug 21 15:48 1983 ./source/parser/
-r--r--r-- 267/10         4183 Oct 29 15:14 1982 ./source/parser/Makefile
-r--r--r-- 267/10          341 Oct 29 15:14 1982 ./source/parser/ack_err.c
-r--r--r-- 267/10         8015 Oct 29 15:14 1982 ./source/parser/att_fcn.c
-r--r--r-- 267/10         1120 Oct 29 15:14 1982 ./source/parser/call_tree.c
-r--r--r-- 267/10         7640 Oct 29 15:14 1982 ./source/parser/control.c
-r--r--r-- 267/10         6961 Oct 29 15:14 1982 ./source/parser/format.c
-r--r--r-- 267/10         1137 Sep 28 04:20 1983 ./source/parser/get_scan.c
-r--r--r-- 267/10        19737 Oct 30 08:37 1982 ./source/parser/grammar.y
-r--r--r-- 267/10         8195 Oct 29 15:14 1982 ./source/parser/norml.c
-r--r--r-- 267/10         1621 Oct 29 15:14 1982 ./source/parser/par_init.c
-r--r--r-- 267/10         6900 Sep 28 04:21 1983 ./source/parser/par_util.c
-r--r--r-- 267/10         2201 Oct 29 15:14 1982 ./source/parser/parser.c
-r--r--r-- 267/10         3277 Oct 29 15:14 1982 ./source/parser/parser.h
-r--r--r-- 267/10          511 Oct 29 15:14 1982 ./source/parser/pass_err.c
-r--r--r-- 267/10         9237 Oct 29 15:14 1982 ./source/parser/range_fcn.c
-r--r--r-- 267/10         1035 Oct 29 15:14 1982 ./source/parser/s_cmap.c
-r--r--r-- 267/10         1046 Sep 28 04:21 1983 ./source/parser/s_comment.c
-r--r--r-- 267/10          396 Sep 28 04:21 1983 ./source/parser/s_inout.c
-r--r--r-- 267/10         1578 Sep 28 04:21 1983 ./source/parser/s_name.c
-r--r--r-- 267/10         2266 Sep 28 04:21 1983 ./source/parser/s_number.c
-r--r--r-- 267/10         1494 Sep 28 04:21 1983 ./source/parser/s_operator.c
-r--r--r-- 267/10         1919 Sep 28 04:21 1983 ./source/parser/s_string.c
-r--r--r-- 267/10          492 Oct 29 15:14 1982 ./source/parser/s_symtab.c
-r--r--r-- 267/10         2957 Sep 28 04:21 1983 ./source/parser/s_yylex.c
-r--r--r-- 267/10         2857 Oct 29 15:14 1982 ./source/parser/scanner.h
-r--r--r-- 267/10         2970 Oct 29 15:14 1982 ./source/parser/tables.y
-r--r--r-- 267/10         4693 Oct 29 15:14 1982 ./source/parser/tree.c
-r--r--r-- 267/10         2030 Oct 29 15:14 1982 ./source/parser/xdot.c
-r--r--r-- 267/10         2838 Oct 29 15:14 1982 ./source/parser/yyerror.y
-r--r--r-- 267/10         2564 Oct 29 15:15 1982 ./source/parser/tags
-r--r--r-- 267/10        35288 Oct 30 08:38 1982 ./source/parser/grammar.c
drwxrwxr-x 267/10            0 Nov  3 10:51 1983 ./source/ovqp/
-r--r--r-- 267/10         3318 Sep 28 04:20 1983 ./source/ovqp/Makefile
-r--r--r-- 267/10         2099 Oct 29 15:13 1982 ./source/ovqp/equelpr.c
-r--r--r-- 267/10         7459 Oct 29 15:13 1982 ./source/ovqp/findsimps.c
-r--r--r-- 267/10        12672 Oct 29 15:13 1982 ./source/ovqp/interp.c
-r--r--r-- 267/10         4385 Oct 29 15:13 1982 ./source/ovqp/interp1.c
-r--r--r-- 267/10         7296 Oct 29 15:13 1982 ./source/ovqp/key.c
-r--r--r-- 267/10         2620 Oct 29 15:13 1982 ./source/ovqp/ovqp.h
-r--r--r-- 267/10         2117 Oct 29 15:13 1982 ./source/ovqp/prsym.c
-r--r--r-- 267/10         7044 Oct 29 15:13 1982 ./source/ovqp/scan.c
-r--r--r-- 267/10          642 Jul  7 16:33 1983 ./source/ovqp/startovqp.c
-r--r--r-- 267/10         6214 Sep 28 04:20 1983 ./source/ovqp/strategy.c
-r--r--r-- 267/10          109 Oct 29 15:13 1982 ./source/ovqp/strategy.h
-r--r--r-- 267/10         6095 Oct 29 15:13 1982 ./source/ovqp/string.c
-r--r--r-- 267/10         4078 Sep 28 04:20 1983 ./source/ovqp/typecheck.c
-r--r--r-- 0/10           2405 Nov  3 10:51 1983 ./source/ovqp/tidtest.c
-r--r--r-- 267/10           59 Oct 29 15:13 1982 ./source/ovqp/agg.bug
-r--r--r-- 267/10         1826 Oct 29 15:13 1982 ./source/ovqp/tags
drwxrwxr-x 267/10            0 Sep 28 04:34 1983 ./source/support/
-r--r--r-- 267/10        25784 Jul  8 05:50 1983 ./source/support/restore.c
-rw-r--r-- 0/10          36107 Sep 28 04:34 1983 ./source/support/ingres.c
-rw-r--r-- 0/10           1639 Sep 28 04:34 1983 ./source/support/initsocket.c
-r--r--r-- 267/10        34715 Sep 28 04:21 1983 ./source/support/creatdb.c
-r--r--r-- 267/10         7965 Sep 28 04:21 1983 ./source/support/Makefile
-r--r--r-- 267/10         4332 Nov 11 10:57 1982 ./source/support/destroydb.c
-r--r--r-- 267/10        31277 Sep 28 04:21 1983 ./source/support/ingres.y
-r--r--r-- 267/10         7004 Oct 29 15:17 1982 ./source/support/copydb.q
-r--r--r-- 267/10         5785 Jul  8 05:45 1983 ./source/support/purge.c
-r--r--r-- 267/10         4763 Jan 31 17:40 1983 ./source/support/sysmod.c
-r--r--r-- 267/10         1746 Sep 28 04:21 1983 ./source/support/error.c
-r--r--r-- 267/10         3500 Oct 29 15:18 1982 ./source/support/helpr.c
-r--r--r-- 267/10        13346 Sep 28 04:34 1983 ./source/support/ildr.c
-r--r--r-- 267/10         3520 Oct 29 15:18 1982 ./source/support/indconv.q
-r--r--r-- 267/10         1587 Oct 29 15:18 1982 ./source/support/printadmin.c
-r--r--r-- 267/10         3626 Sep 28 04:21 1983 ./source/support/printr.c
-r--r--r-- 267/10         1398 Oct 29 15:18 1982 ./source/support/prvect.c
-r--r--r-- 267/10         5051 Sep 28 04:21 1983 ./source/support/subs.c
-r--r--r-- 267/10         4763 Oct 29 15:18 1982 ./source/support/tmpsys.c
-r--r--r-- 267/10         7496 Oct 29 15:18 1982 ./source/support/timefix.c
-r--r--r-- 267/10         3122 Oct 29 15:18 1982 ./source/support/usersetup.c
-r--r--r-- 267/10         2497 Jan 24 14:56 1983 ./source/support/demodb.sh
drwxrwxr-x 267/10            0 Aug 21 15:47 1983 ./source/iutil/
-r--r--r-- 267/10         2178 Feb  4 08:15 1983 ./source/iutil/get.c
-r--r--r-- 267/10         1178 Feb  4 08:17 1983 ./source/iutil/utility.c
-r--r--r-- 267/10        16363 Sep 28 04:20 1983 ./source/iutil/initucode.c
-r--r--r-- 267/10         6664 Sep 28 04:20 1983 ./source/iutil/Makefile
-r--r--r-- 267/10          389 Oct 29 15:06 1982 ./source/iutil/acc_addbuf.c
-r--r--r-- 267/10          303 Oct 29 15:06 1982 ./source/iutil/acc_init.c
-r--r--r-- 267/10         1335 Sep 28 04:20 1983 ./source/iutil/cslocks.c
-r--r--r-- 267/10         2212 Oct 29 15:06 1982 ./source/iutil/accintern.h
-r--r--r-- 267/10         2245 Oct 29 15:06 1982 ./source/iutil/add_ovflo.c
-r--r--r-- 267/10          911 Oct 29 15:06 1982 ./source/iutil/add_prim.c
-r--r--r-- 267/10         5589 Oct 29 15:06 1982 ./source/iutil/batch.c
-r--r--r-- 267/10          575 Oct 29 15:06 1982 ./source/iutil/batchxtra.c
-r--r--r-- 267/10         5244 Oct 29 15:06 1982 ./source/iutil/bndxsearch.c
-r--r--r-- 267/10          473 Oct 29 15:06 1982 ./source/iutil/cat_desc.c
-r--r--r-- 267/10         2171 Oct 29 15:06 1982 ./source/iutil/checkadmin.c
-r--r--r-- 267/10          550 Oct 29 15:06 1982 ./source/iutil/cleanrel.c
-r--r--r-- 267/10         1310 Oct 29 15:06 1982 ./source/iutil/closecat.c
-r--r--r-- 267/10          769 Oct 29 15:06 1982 ./source/iutil/closer.c
-r--r--r-- 267/10          592 Oct 29 15:06 1982 ./source/iutil/clr_tuple.c
-r--r--r-- 267/10         1679 Oct 29 15:06 1982 ./source/iutil/compare.c
-r--r--r-- 267/10         1284 May 20 06:27 1983 ./source/iutil/dblocks.c
-r--r--r-- 267/10         1824 Sep 28 04:20 1983 ./source/iutil/pglocks.c
-r--r--r-- 267/10         1004 Oct 29 15:06 1982 ./source/iutil/del_tuple.c
-r--r--r-- 267/10          704 Oct 29 15:06 1982 ./source/iutil/delete.c
-r--r--r-- 267/10          863 Oct 29 15:06 1982 ./source/iutil/do_u_flag.c
-r--r--r-- 267/10          422 Oct 29 15:06 1982 ./source/iutil/errfilen.c
-r--r--r-- 267/10         3252 Oct 29 15:06 1982 ./source/iutil/find.c
-r--r--r-- 267/10         4301 Oct 29 15:06 1982 ./source/iutil/findbest.c
-r--r--r-- 267/10          751 Oct 29 15:06 1982 ./source/iutil/formatpg.c
-r--r--r-- 267/10         1342 Oct 29 15:06 1982 ./source/iutil/get_reltup.c
-r--r--r-- 267/10         2476 Oct 29 15:06 1982 ./source/iutil/get_tuple.c
-r--r--r-- 267/10         1270 Oct 29 15:06 1982 ./source/iutil/getequal.c
-r--r--r-- 267/10         1147 Oct 29 15:06 1982 ./source/iutil/getnuser.c
-r--r--r-- 267/10         3763 Oct 29 15:06 1982 ./source/iutil/gettree.c
-r--r--r-- 267/10         1202 Oct 29 15:07 1982 ./source/iutil/getuser.c
-r--r--r-- 267/10          492 Oct 29 15:07 1982 ./source/iutil/globals.c
-r--r--r-- 267/10          654 Oct 29 15:07 1982 ./source/iutil/ingresname.c
-r--r--r-- 267/10          812 Oct 29 15:07 1982 ./source/iutil/inpcloser.c
-r--r--r-- 267/10         1123 Oct 29 15:07 1982 ./source/iutil/insert.c
-r--r--r-- 267/10          986 Oct 29 15:07 1982 ./source/iutil/last_page.c
-r--r--r-- 267/10         1185 Oct 29 15:07 1982 ./source/iutil/markopen.c
-r--r--r-- 267/10         3794 Oct 29 15:07 1982 ./source/iutil/ndxsearch.c
-r--r--r-- 267/10          821 Oct 29 15:07 1982 ./source/iutil/newlino.c
-r--r--r-- 267/10         1380 Oct 29 15:07 1982 ./source/iutil/noclose.c
-r--r--r-- 267/10          772 Oct 29 15:07 1982 ./source/iutil/null_fn.c
-r--r--r-- 267/10         2612 Oct 29 15:07 1982 ./source/iutil/opencat.c
-r--r--r-- 267/10         4570 Oct 29 15:07 1982 ./source/iutil/openr.c
-r--r--r-- 267/10          439 Oct 29 15:07 1982 ./source/iutil/out_arg.c
-r--r--r-- 267/10         3076 Oct 29 15:07 1982 ./source/iutil/page.c
-r--r--r-- 267/10         1118 Oct 29 15:07 1982 ./source/iutil/paramd.c
-r--r--r-- 267/10         1371 Sep 28 04:20 1983 ./source/iutil/rllocks.c
-r--r--r-- 267/10         1077 Oct 29 15:07 1982 ./source/iutil/printdesc.c
-r--r--r-- 267/10         3848 Oct 29 15:07 1982 ./source/iutil/printup.c
-r--r--r-- 267/10         2992 Oct 29 15:07 1982 ./source/iutil/put_tuple.c
-r--r--r-- 267/10         2381 Oct 29 15:07 1982 ./source/iutil/readadmin.c
-r--r--r-- 267/10         4208 Oct 29 15:07 1982 ./source/iutil/replace.c
-r--r--r-- 267/10         1437 Sep 28 04:20 1983 ./source/iutil/rhash.c
-r--r--r-- 267/10         5657 May 20 06:27 1983 ./source/iutil/accbuf.c
-r--r--r-- 267/10         2380 Oct 29 15:07 1982 ./source/iutil/rub.c
-r--r--r-- 267/10         2221 Oct 29 15:07 1982 ./source/iutil/scan_dups.c
-r--r--r-- 267/10         1435 Oct 29 15:07 1982 ./source/iutil/setkey.c
-r--r--r-- 267/10          792 Oct 29 15:07 1982 ./source/iutil/trim_relna.c
-r--r--r-- 267/10          807 Oct 29 15:07 1982 ./source/iutil/tup_len.c
-r--r--r-- 267/10         1032 Oct 29 15:07 1982 ./source/iutil/writebatch.c
-r--r--r-- 267/10         4531 Jan 28 07:53 1983 ./source/iutil/tags
-r--r--r-- 267/10         1185 Jan 28 09:16 1983 ./source/iutil/tmputil.c
-r--r--r-- 267/10         2441 Sep 28 04:20 1983 ./source/iutil/lock.c
-r--r--r-- 267/10         1950 May 19 15:16 1983 ./source/iutil/getservent.c
-r--r--r-- 267/10         1562 Oct 29 15:20 1982 ./source/READ_ME
-rwxr-xr-x 267/10          236 Oct 29 15:20 1982 ./source/applyall
-rwxr-xr-x 267/10          277 Oct 29 15:20 1982 ./source/deltaall
-rwxr-xr-x 267/10          232 Oct 29 15:20 1982 ./source/sccscheck
-r--r--r-- 267/10        38431 Oct 29 15:20 1982 ./source/tags
-rw-r--r-- 267/10         1108 Jan 31 17:31 1983 ./.cshrc
drwxrwxr-x 267/10            0 Jul  4 16:56 1983 ./doc/
drwxrwxr-x 267/10            0 Jun 19 09:01 1983 ./doc/files/
-r--r--r-- 267/10          547 Nov 20 09:54 1982 ./doc/files/dayfile.nr
-r--r--r-- 267/10         1308 Nov 20 09:54 1982 ./doc/files/dbtmplt.nr
-r--r--r-- 267/10         1066 Nov 20 09:54 1982 ./doc/files/error.nr
-r--r--r-- 267/10          557 Nov 20 09:54 1982 ./doc/files/grafile.nr
-r--r--r-- 267/10         3322 Nov 20 09:54 1982 ./doc/files/libq.nr
-r--r--r-- 267/10         3604 Nov 20 09:54 1982 ./doc/files/proctab.nr
-r--r--r-- 267/10          350 Nov 20 09:54 1982 ./doc/files/startup.nr
-r--r--r-- 267/10         1122 Nov 20 09:54 1982 ./doc/files/ttytype.nr
-r--r--r-- 267/10         1538 Nov 20 09:54 1982 ./doc/files/users.nr
drwxrwxr-x 267/10            0 Jun 19 09:01 1983 ./doc/quel/
-r--r--r-- 267/10         1962 Nov 20 09:56 1982 ./doc/quel/append.nr
-r--r--r-- 267/10         7056 Nov 20 09:56 1982 ./doc/quel/copy.nr
-r--r--r-- 267/10          931 Nov 20 09:56 1982 ./doc/quel/create.nr
-r--r--r-- 267/10          615 Nov 20 09:56 1982 ./doc/quel/define.nr
-r--r--r-- 267/10         1011 Nov 20 09:56 1982 ./doc/quel/delete.nr
-r--r--r-- 267/10         1562 Nov 20 09:56 1982 ./doc/quel/destroy.nr
-r--r--r-- 267/10         1944 Nov 20 09:57 1982 ./doc/quel/help.nr
-r--r--r-- 267/10         1768 Nov 20 09:57 1982 ./doc/quel/index.nr
-r--r--r-- 267/10          940 Nov 20 09:57 1982 ./doc/quel/integrity.nr
-r--r--r-- 267/10        10983 Nov 20 09:57 1982 ./doc/quel/macros.nr
-r--r--r-- 267/10         5326 Nov 20 09:57 1982 ./doc/quel/modify.nr
-r--r--r-- 267/10         8422 Nov 20 09:57 1982 ./doc/quel/monitor.nr
-r--r--r-- 267/10         2654 Nov 20 09:57 1982 ./doc/quel/permit.nr
-r--r--r-- 267/10          916 Nov 20 09:57 1982 ./doc/quel/print.nr
-r--r--r-- 267/10        16692 Nov 20 09:57 1982 ./doc/quel/quel.nr
-r--r--r-- 267/10          980 Nov 20 09:57 1982 ./doc/quel/range.nr
-r--r--r-- 267/10         1426 Nov 20 09:57 1982 ./doc/quel/replace.nr
-r--r--r-- 267/10         2326 Nov 20 09:57 1982 ./doc/quel/retrieve.nr
-r--r--r-- 267/10          867 Nov 20 09:57 1982 ./doc/quel/save.nr
-r--r--r-- 267/10         1313 Nov 20 09:57 1982 ./doc/quel/view.nr
drwxrwxr-x 267/10            0 Jun 19 09:01 1983 ./doc/error/
-r--r--r-- 267/10        11147 Nov 20 09:56 1982 ./doc/error/02parser.nr
-r--r--r-- 267/10         3407 Nov 20 09:56 1982 ./doc/error/03qrymod.nr
-r--r--r-- 267/10         1818 Nov 20 09:56 1982 ./doc/error/04Bdecomp.nr
-r--r--r-- 267/10         2351 Nov 20 09:56 1982 ./doc/error/04Aovqp.nr
-r--r--r-- 267/10        10758 Nov 20 09:56 1982 ./doc/error/05dbu.nr
-r--r--r-- 267/10           37 Nov 20 09:56 1982 ./doc/error/error7_0
-r--r--r-- 267/10          293 Nov 20 09:56 1982 ./doc/error/error7_1
-r--r--r-- 267/10         5814 Nov 20 09:56 1982 ./doc/error/error7_2
-r--r--r-- 267/10         1036 Nov 20 09:56 1982 ./doc/error/error7_3
-r--r--r-- 267/10         1106 Nov 20 09:56 1982 ./doc/error/error7_4
-r--r--r-- 267/10         3948 Nov 20 09:56 1982 ./doc/error/error7_5
-r--r--r-- 267/10          184 Nov 20 09:56 1982 ./doc/error/error7_6
drwxrwxr-x 267/10            0 Jun 19 09:02 1983 ./doc/other/
-r--r--r-- 267/10        90795 Nov 20 09:55 1982 ./doc/other/design.roff
-r--r--r-- 267/10        10543 Nov 20 09:55 1982 ./doc/other/example.c
-r--r--r-- 267/10         1112 Nov 20 09:55 1982 ./doc/other/equeldemo.q
-r--r--r-- 267/10        45945 Nov 20 09:55 1982 ./doc/other/tutorial.nr
-r--r--r-- 267/10         6996 Nov 20 09:55 1982 ./doc/other/v5v6diff.nr
-r--r--r-- 267/10         1183 Nov 20 09:55 1982 ./doc/other/nmacs
-r--r--r-- 267/10        14826 May 20 07:15 1983 ./doc/other/howto_setup.nr
-r--r--r-- 267/10         5616 Nov 20 09:55 1982 ./doc/other/setup_geo.nr
-r--r--r-- 267/10         3240 May 20 13:14 1983 ./doc/other/lockdev.nr
-r--r--r-- 267/10         8176 Nov 20 09:56 1982 ./doc/other/v6v61diff.nr
-r--r--r-- 267/10        46024 Nov 20 09:56 1982 ./doc/other/maintain.nr
-r--r--r-- 267/10         1521 Nov 20 09:56 1982 ./doc/other/indconv.nr
-r--r--r-- 267/10        14617 Nov 20 09:56 1982 ./doc/other/equeltut.q
-r--r--r-- 267/10          906 Nov 20 09:56 1982 ./doc/other/flags.cat
-r--r--r-- 267/10        11286 Nov 20 09:56 1982 ./doc/other/v61v62diff.nr
drwxrwxr-x 267/10            0 Jun 19 09:02 1983 ./doc/unix/
-r--r--r-- 267/10         1816 Nov 20 09:58 1982 ./doc/unix/copydb.nr
-r--r--r-- 267/10         5045 Nov 20 09:58 1982 ./doc/unix/creatdb.nr
-r--r--r-- 267/10         1285 Nov 20 09:58 1982 ./doc/unix/destroydb.nr
-r--r--r-- 267/10        10566 Nov 20 09:58 1982 ./doc/unix/equel.nr
-r--r--r-- 267/10         1693 Nov 20 09:58 1982 ./doc/unix/geoquel.nr
-r--r--r-- 267/10          753 Nov 20 09:58 1982 ./doc/unix/helpr.nr
-r--r--r-- 267/10         5743 Nov 20 09:58 1982 ./doc/unix/ingres.nr
-r--r--r-- 267/10          812 Nov 20 09:58 1982 ./doc/unix/printr.nr
-r--r--r-- 267/10         2095 Nov 20 09:58 1982 ./doc/unix/purge.nr
-r--r--r-- 267/10         4275 Nov 20 09:58 1982 ./doc/unix/restore.nr
-r--r--r-- 267/10         1910 Nov 20 09:58 1982 ./doc/unix/sysmod.nr
-r--r--r-- 267/10         2848 Nov 20 09:58 1982 ./doc/unix/usersetup.nr
-r--r--r-- 267/10          630 Nov 20 09:54 1982 ./doc/0aa.nr
-r--r--r-- 267/10         3000 Nov 20 09:54 1982 ./doc/1aa.nr
-rwxr-xr-x 267/10          212 Nov 20 09:54 1982 ./doc/contents.sh
-r--r--r-- 267/10          523 Nov 20 09:54 1982 ./doc/iaa
-r--r--r-- 267/10          709 Nov 20 09:56 1982 ./doc/naa
-r--r--r-- 267/10          847 Nov 20 09:57 1982 ./doc/taa
-r--r--r-- 267/10          266 Nov 20 09:57 1982 ./doc/READ_ME
-r--r--r-- 267/10         6361 Nov 20 09:58 1982 ./doc/toc.nr
-rwxr-xr-x 267/10          258 Nov 20 09:58 1982 ./doc/toc.sh
-r--r--r-- 267/10          439 Nov 20 09:58 1982 ./doc/Makefile
drwxrwxr-x 267/10            0 Jun 19 09:03 1983 ./lib/
-r--r--r-- 267/10        14918 Sep 28 04:37 1983 ./lib/gutil
-r--r--r-- 267/10        60180 Sep 28 04:37 1983 ./lib/iutil
-r--r--r-- 267/10        80578 Sep 28 04:37 1983 ./lib/dbulib
-r--r--r-- 267/10        36362 Sep 28 04:37 1983 ./lib/ctlmod
-r--r--r-- 267/10        54240 Sep 28 04:37 1983 ./lib/monitor
-r--r--r-- 267/10        54616 Sep 28 04:37 1983 ./lib/parser
-r--r--r-- 267/10        52014 Sep 28 04:37 1983 ./lib/decomp
-r--r--r-- 267/10        29006 Sep 28 04:37 1983 ./lib/qrymod
-r--r--r-- 267/10        26880 Sep 28 04:37 1983 ./lib/ovqp
-rw-r--r-- 267/10        40780 Sep 28 04:37 1983 ./lib/libq.a
-rw-r--r-- 267/10          417 Nov  6 18:14 1982 ./Makefile
